p, OWNER, PIPELINE, GET
p, OWNER, PIPELINE, DELETE
p, OWNER, PIPELINE, PUT
p, OWNER, PIPELINE, RUN
p, OWNER, PIPELINE, TRANSFER
p, OWNER, PIPELINE, PUBLIC
p, OWNER, PIPELINE, ADD_MEMBER
p, OWNER, PIPELINE, DELETE_MEMBER
p, OWNER, PIPELINE, UPDATE_MEMBER
p, OWNER, PIPELINE, ADD_GROUP
p, OWNER, PIPELINE, DELETE_GROUP
p, OWNER, PIPELINE, UPDATE_GROUP
p, DEVELOPER, PIPELINE, GET
p, DEVELOPER, PIPELINE, PUT
p, DEVELOPER, PIPELINE, RUN
p, USER, PIPELINE, GET
p, USER, PIPELINE, RUN
p, GUEST, PIPELINE, GET
p, OWNER, COMPONENT, GET
p, OWNER, COMPONENT, DELETE
p, OWNER, COMPONENT, PUT
p, OWNER, COMPONENT, RUN
p, OWNER, COMPONENT, TRANSFER
p, OWNER, COMPONENT, PUBLIC
p, OWNER, COMPONENT, ADD_MEMBER
p, OWNER, COMPONENT, DELETE_MEMBER
p, OWNER, COMPONENT, UPDATE_MEMBER
p, OWNER, COMPONENT, ADD_GROUP
p, OWNER, COMPONENT, DELETE_GROUP
p, OWNER, COMPONENT, UPDATE_GROUP
p, DEVELOPER, COMPONENT, GET
p, DEVELOPER, COMPONENT, PUT
p, DEVELOPER, COMPONENT, RUN
p, USER, COMPONENT, GET
p, USER, COMPONENT, RUN
p, GUEST, COMPONENT, GET
p, OWNER, DATASET, GET
p, OWNER, DATASET, DELETE
p, OWNER, DATASET, PUT
p, OWNER, DATASET, RUN
p, OWNER, DATASET, TRANSFER
p, OWNER, DATASET, PUBLIC
p, OWNER, DATASET, ADD_MEMBER
p, OWNER, DATASET, DELETE_MEMBER
p, OWNER, DATASET, UPDATE_MEMBER
p, OWNER, DATASET, ADD_GROUP
p, OWNER, DATASET, DELETE_GROUP
p, OWNER, DATASET, UPDATE_GROUP
p, DEVELOPER, DATASET, GET
p, DEVELOPER, DATASET, PUT
p, DEVELOPER, DATASET, RUN
p, USER, DATASET, GET
p, USER, DATASET, RUN
p, GUEST, DATASET, GET
p, SUPER_MASTER, GROUP, GET
p, SUPER_MASTER, GROUP, DELETE
p, SUPER_MASTER, GROUP, PUT
p, SUPER_MASTER, GROUP, TRANSFER
p, SUPER_MASTER, GROUP, ADD_MEMBER
p, SUPER_MASTER, GROUP, DELETE_MEMBER
p, SUPER_MASTER, GROUP, UPDATE_MEMBER
p, MASTER, GROUP, GET
p, MASTER, GROUP, PUT
p, MASTER, GROUP, ADD_MEMBER
p, MASTER, GROUP, DELETE_MEMBER
p, MASTER, GROUP, UPDATE_MEMBER
p, MEMBER, GROUP, GET
p, OWNER, FOLDER, GET
p, OWNER, FOLDER, DELETE
p, OWNER, FOLDER, PUT
p, OWNER, FOLDER, PUBLIC
p, OWNER, FOLDER, GET_OBJECT
p, OWNER, FOLDER, ADD_OBJECT
p, OWNER, FOLDER, DELETE_OBJECT
p, OWNER, FOLDER, UPDATE_OBJECT
p, OWNER, FOLDER, DOWNLOAD_OBJECT
p, OWNER, FOLDER, ADD_MEMBER
p, OWNER, FOLDER, DELETE_MEMBER
p, OWNER, FOLDER, UPDATE_MEMBER
p, OWNER, FOLDER, ADD_GROUP
p, OWNER, FOLDER, DELETE_GROUP
p, OWNER, FOLDER, UPDATE_GROUP
p, DEVELOPER, FOLDER, GET
p, DEVELOPER, FOLDER, PUT
p, DEVELOPER, FOLDER, GET_OBJECT
p, DEVELOPER, FOLDER, ADD_OBJECT
p, DEVELOPER, FOLDER, DELETE_OBJECT
p, DEVELOPER, FOLDER, UPDATE_OBJECT
p, DEVELOPER, FOLDER, DOWNLOAD_OBJECT
p, USER, FOLDER, GET
p, USER, FOLDER, GET_OBJECT
p, USER, FOLDER, DOWNLOAD_OBJECT
p, GUEST, FOLDER, GET
p, GUEST, FOLDER, GET_OBJECT
p, OWNER, PROJECT, GET
p, OWNER, PROJECT, DELETE
p, OWNER, PROJECT, PUT
p, OWNER, PROJECT, GET_TRAIN
p, OWNER, PROJECT, ADD_TRAIN
p, OWNER, PROJECT, DELETE_TRAIN
p, OWNER, PROJECT, UPDATE_TRAIN
p, OWNER, PROJECT, SHARE_TRAIN
p, OWNER, PROJECT, ADD_MEMBER
p, OWNER, PROJECT, DELETE_MEMBER
p, OWNER, PROJECT, UPDATE_MEMBER
p, OWNER, PROJECT, ADD_GROUP
p, OWNER, PROJECT, DELETE_GROUP
p, OWNER, PROJECT, UPDATE_GROUP
p, DEVELOPER, PROJECT, GET
p, DEVELOPER, PROJECT, GET_TRAIN
p, DEVELOPER, PROJECT, ADD_TRAIN
p, DEVELOPER, PROJECT, DELETE_TRAIN
p, DEVELOPER, PROJECT, UPDATE_TRAIN
p, DEVELOPER, PROJECT, SHARE_TRAIN
p, USER, PROJECT, GET
p, USER, PROJECT, GET_TRAIN
p, GUEST, PROJECT, GET
p, OWNER, MACHINE, GET
p, OWNER, MACHINE, DELETE
p, OWNER, MACHINE, PUT
p, OWNER, MACHINE, RUN
p, OWNER, MACHINE, ADD_MEMBER
p, OWNER, MACHINE, DELETE_MEMBER
p, OWNER, MACHINE, UPDATE_MEMBER
p, OWNER, MACHINE, ADD_GROUP
p, OWNER, MACHINE, DELETE_GROUP
p, OWNER, MACHINE, UPDATE_GROUP
p, OWNER, MACHINE, ADD_WHITELIST
p, OWNER, MACHINE, DELETE_WHITELIST
p, DEVELOPER, MACHINE, GET
p, DEVELOPER, MACHINE, PUT
p, DEVELOPER, MACHINE, RUN
p, USER, MACHINE, GET
p, USER, MACHINE, RUN
p, GUEST, MACHINE, GET
p, OWNER, NODE, GET
p, OWNER, NODE, DOWNLOAD
p, OWNER, NODE, PUT
p, OWNER, NODE, DELETE
p, OWNER, NODE, PUBLIC
p, OWNER, NODE, ADD_MEMBER
p, OWNER, NODE, DELETE_MEMBER
p, OWNER, NODE, UPDATE_MEMBER
p, OWNER, NODE, ADD_GROUP
p, OWNER, NODE, DELETE_GROUP
p, OWNER, NODE, UPDATE_GROUP
p, DEVELOPER, NODE, GET
p, DEVELOPER, NODE, DOWNLOAD
p, DEVELOPER, NODE, PUT
p, USER, NODE, GET
p, USER, NODE, DOWNLOAD
p, GUEST, NODE, GET